<?xml version="1.0" encoding="UTF-8"?>
<svg xmlns="http://www.w3.org/2000/svg" xmlns:xlink="http://www.w3.org/1999/xlink" width="91pt" height="127pt" viewBox="0 0 91 127" version="1.1">
<g id="surface1">
<path style=" stroke:none;fill-rule:nonzero;fill:rgb(0%,0%,0%);fill-opacity:1;" d="M 0.0234375 0 L 0.53125 127 L 37.46875 94.910156 L 15.722656 37.132812 Z M 0.0234375 0 "/>
<path style=" stroke:none;fill-rule:nonzero;fill:rgb(0%,0%,0%);fill-opacity:1;" d="M 0.0234375 0 L 90.976562 89.335938 L 42.023438 93.011719 L 15.722656 37.132812 Z M 0.0234375 0 "/>
</g>
</svg>
