{
    "contacts" : [
        {
            "name": "whatsapp",
            "href" : "https://wa.me/6481802769310",
            "iconUrl" : "/media/icons/whatsapp.svg"
        },
        {
            "name": "gitlab",
            "href" : "https://gitlab.com/Nan011",
            "iconUrl" : "/media/icons/gitlab.svg"
        },
        {
            "name": "linked-in",
            "href" : "https://www.linkedin.com/in/nandhika-prayoga-603a50187",
            "iconUrl" : "/media/icons/linked-in.svg"
        },
        {
            "name": "cv",
            "href": "/",
            "iconUrl": "/media/icons/paper-plane.svg"
        }
    ],
    "skills": [
        {
            "name": "HTML5",
            "percentage": 90
        },
        {
            "name": "CSS3",
            "percentage": 95
        },
        {
            "name": "SCSS",
            "percentage": 75
        },
        {
            "name": "JavaScript",
            "percentage": 75
        },
        {
            "name": "ES6",
            "percentage": 85
        },
        {
            "name": "Adobe After Effect",
            "percentage": 65
        },
        {
            "name": "Adobe Photoshop",
            "percentage": 85
        },
        {
            "name": "Adobe Illustrator",
            "percentage": 80
        },
        {
            "name": "C",
            "percentage": 40
        },
        {
            "name": "C++",
            "percentage": 45
        },
        {
            "name": "Python",
            "percentage": 85
        },
        {
            "name": "Java",
            "percentage": 85
        },
        {
            "name": "Ruby",
            "percentage": 70
        },
        {
            "name": "Node",
            "percentage": 85
        },
        {
            "name": "Express",
            "percentage": 65
        },
        {
            "name": "Dart",
            "percentage": 45
        },
        {
            "name": "React",
            "percentage": 90
        },
        {
            "name": "Django",
            "percentage": 85
        },
        {
            "name": "Django Rest",
            "percentage": 50
        },
        {
            "name": "Spring",
            "percentage": 35
        },
        {
            "name": "PosgreSQL",
            "percentage": 80
        },
        {
            "name": "MySQL",
            "percentage": 70
        },
        {
            "name": "Firebase",
            "percentage": 60
        },
        {
            "name": "Git",
            "percentage": 90
        },
        {
            "name": "REST",
            "percentage": 60
        },
        {
            "name": "GraphQL",
            "percentage": 40
        },
        {
            "name": "TDD",
            "percentage": 70
        },
        {
            "name": "Flutter",
            "percentage": 70
        }

    ],
    "experiences": [
        {
            "id": 1,
            "beginDate": "2019-07-10",
            "endDate": "2019-08-20",
            "role": "Sirmaba Programmer Assistant",
            "company": "Sirmaba (Sistem Informasi Transaksi dan Manajemen Data Bank Sampah)",
            "tags": [
                "HTML5",
                "CSS3",
                "JavaScript",
                "JQuery",
                "Bootstrap",
                "Django",
                "SQLite",
                "Heroku",
                "Dewaweb",
                "Git"
            ],
            "detail": "<div id=\"react-tinymce-513\" class=\"mce-content-body\" spellcheck=\"true\">\n<div id=\"react-tinymce-515\" class=\"mce-content-body\" spellcheck=\"true\">\n<p>Student and government program. Assigned to complete the rest of application features. Use Django as framework to create database and view of application.</p>\n<p><strong>Responsibilities:</strong></p>\n<ul>\n<li>Collaborate with back-end team to create customer features such as savings, deposit detail, profile, form, and database.</li>\n<li>Collaborated with front-end team to display the customer features on website.</li>\n<li>Configured CI/CD of the app to staging server and production server.</li>\n</ul>\n</div>\n</div>"
        },
        {
            "id": 2,
            "beginDate": "2019-07-08",
            "endDate": "2019-09-02",
            "role": "Mobile Developer Intern",
            "company": "adaTeman",
            "tags": [
                "Flutter",
                "Dart",
                "Git",
                "Flare",
                "Future",
                "Google Authentication"
            ],
            "detail": "<div id=\"react-tinymce-513\" class=\"mce-content-body\" spellcheck=\"true\">\n<p>Assigned to remake the app in terms of the design and logic implementation.&nbsp; Learn the best practice to use flutter as the framework to create a cross-platform app (Android and IOS).</p>\n<p><strong>Responsibilities:</strong></p>\n<ul>\n<li>Participated in a weekly meeting to give updates and discuss the next step.</li>\n<li>Fixed some bug issues that happened in the main features.</li>\n<li>Organized files and refactored codes to achieve readability, reusability, maintainability, and scalability.</li>\n<li>Reduced memory usage to prevent battery drainage.</li>\n<li>Configure the app setting more robust and able to adapt to the new feature.</li>\n</ul>\n</div>"
        },
        {
            "id": 3,
            "beginDate": "2019-09-02",
            "endDate": "2019-12-24",
            "role": "Advanced Mathematics Teaching Assistant",
            "company": "Universitas Indonesia Faculty of Computer Science",
            "tags": [
                "Calculus 2",
                "Calculus 3"
            ],
            "detail": "<div id=\"react-tinymce-513\" class=\"mce-content-body\" spellcheck=\"true\">\n<div id=\"react-tinymce-515\" class=\"mce-content-body\" spellcheck=\"true\">\n<p>Assigned to assist the professor related to student grade and teaching the course. The course contains some calculus 2 and calculus 3.</p>\n<p><strong>Responsibilities:</strong></p>\n<ul>\n<li>Grade student homework every two weeks.</li>\n<li>Teach students about some topics before mid-test or final-test.</li>\n</ul>\n</div>\n</div>"
        },
        {
            "id": 4,
            "beginDate": "2020-01-26",
            "endDate": "2020-05-31",
            "role": "Automata Theory Teaching Assistant",
            "company": "Universitas Indonesia Faculty of Computer Science",
            "tags": [
                "Mathematics",
                "Turing Machine",
                "State Machine",
                "Pushdown Automata"
            ],
            "detail": "<p>Have a responsibility to assist the professor to take all heavy tasks that related to student tasks in the Theory Automata course. In detail, has the following tasks:</p><ul><li>Together with a team, grades all student works every two weeks</li><li>Produce homework solutions</li><li>As a medium in between students and professors</li></ul>"
        },
        {
            "id": 5,
            "beginDate": "2020-01-26",
            "endDate": "2020-05-31",
            "role": "Design and Analysis Algorithm Teaching Assistant",
            "company": "Universitas Indonesia Faculty of Computer Science",
            "tags": [
                "Mathematics",
                "Algorithm"
            ],
            "detail": "<p>Assisted the professor in the design and analysis algorithm course. In detail, has the following tasks:</p><ul><li>Together with a team, grades all student homework</li><li>Produce Homeworks and its solution</li><li>As a medium in between students and professors</li></ul>"
        },
        {
            "id": 6,
            "beginDate": "2019-09-14",
            "endDate": "2020-05-31",
            "role": "Go-hub Engineer",
            "company": "Go-hub",
            "tags": [
                "React",
                "Node",
                "Express",
                "MongoDB",
                "ES6",
                "Firebase Storage",
                "Google Cloud",
                "Heroku",
                "CI/CD",
                "GraphQL",
                "REST"
            ],
            "detail": "<p>Mainly design and develop a front-end application with ReactJS (Website) and ReactNative (mobile). Also assist back-end developers to build a back-end application with NodeJS, Express, REST, and MongoDB.</p><ul><li>Refactored codes based on the mentor suggestion after doing code review.</li><li>Collaborated with UX designers to designed a website view with Figma and deliver it into the code with React.</li><li>Collaborated with the backend team to design database schema, code structure, and staging database integration.</li><li>Setup CI/CD and scripting.</li></ul>"
        }
    ],
    "projects": [
        {
            "id": 1,
            "imageUrl": "/media/imgs/project-1.png",
            "name": "Student Events Web",
            "beginDate": "2018-09-25",
            "endDate": "2018-11-10",
            "link": "https://students-events.herokuapp.com/",
            "sourceCodeUrl": "https://gitlab.com/mutiarahmatun/students-events-ppwb12",
            "tags": [
                "HTML5",
                "CSS",
                "JavaScript",
                "Django",
                "Google Authentication",
                "Django Authentication",
                "Bootstrap",
                "Figma",
                "AJAX"
            ],
            "description": "<p>My first web application with a team, develop a website to implement common technologies on a website such as authentication, database, MVC, animation, creating some data, or showing data to users.</p>\n<p><strong>Contributions:</strong></p>\n<ul>\n<li>Created a mockup design.</li>\n<li>Coded HTML, CSS, JavaScript based on mockup design.</li>\n<li>Implemented responsive layout.</li>\n<li>Created button and popup style and animation.</li>\n<li>Implemented AJAX.</li>\n<li>Implemented sophisticated layout and properties on CSS.</li>\n<li>Created unit-testing.</li>\n<li>Implemented Google and Django Authentication</li>\n<li>Designed database schema.</li>\n</ul>"
        },
        {
            "id": 2,
            "imageUrl": "/media/imgs/project-2.png",
            "name": "DOLC 2019",
            "beginDate": "2019-01-01",
            "endDate": "2019-01-13",
            "link": "https://dolcfhui.herokuapp.com",
            "sourceCodeUrl": "https://gitlab.com/Nan011/dolc-web",
            "tags": [
                "HTML5",
                "CSS",
                "JavaScript",
                "Django",
                "AJAX"
            ],
            "description": "<p>Contracted to develop a disposable website of the event organized by Universitas Indonesia Faculty of Law in February 2019 and February 2020. Focusing on information-oriented, register, and user use-easiness (smoothly compatible to use on any browser version). Most technical works were creating a custom form including an upload file and manually integrating it to the google drive and google sheet by a custom script.</p>\n<p><strong>Contributions:</strong></p>\n<ul>\n<li>Created a mock-up design.</li>\n<li>Coded HTML, CSS, and JS based on mock-up design.</li>\n<li>Designed animation.</li>\n<li>Implemented AJAX.</li>\n<li>Implemented supported layout and properties on CSS.</li>\n<li>Created a database to store a media partner, sponsorship, and participant information.</li>\n<li>Created form.</li>\n<li>Connected a form to google sheet.</li>\n<li>Optimized performance of animation.</li>\n</ul>"
        },
        {
            "id": 3,
            "imageUrl": "/media/imgs/project-3.png",
            "name": "Avatar Maker",
            "beginDate": "2019-03-01",
            "endDate": "2019-05-20",
            "link": "https://avatarmaker.netlify.com",
            "sourceCodeUrl": "https://gitlab.com/avatarmaker-ap/frontend",
            "tags": [
                "React",
                "Promise",
                "Spring",
                "HTML5",
                "SCSS"
            ],
            "description": "<p>Developing an application where you can create or customize character as you want. The user could be able to create a character based on a specific gender and available items. Also, could save the character as an image (PNG) or a code. My most works are on the front-end environment creating interactively UI and animation.</p>\n<p><strong>Contributions:</strong></p>\n<ul>\n<li>Created a mock-up design.</li>\n<li>Coded HTML, CSS, and JS based on mock-up design.</li>\n<li>Designed animation.</li>\n<li>Implemented AJAX with Promise.</li>\n<li>Implemented supported layout and properties on SCSS.</li>\n<li>Created loading component (Appear when the asynchronous process occurs).</li>\n<li>Implemented design principles.</li>\n</ul>"
        },
        {
            "id": 4,
            "imageUrl": "/media/imgs/project-4.png",
            "name": "ReversAI",
            "beginDate": "2019-03-11",
            "endDate": "2019-05-20",
            "link": "https://reversai.netlify.com",
            "sourceCodeUrl": "https://gitlab.com/reversai/reversi-ai",
            "tags": [
                "React",
                "HTML5",
                "SCSS",
                "AI"
            ],
            "description": "<p>Develop a reversi game with AI on a website. The game has two players, player one as Agent (AI), the other one is the user who will play against the agent. Furthermore improvement, it can be played in multiplayer mode (Without agent). The agent itself uses the <em>MinMax algorithm</em> to analyze the game and <em>pruning algorithm</em> to speed up the time execution.</p>\n<p><strong>Contributions:</strong></p>\n<ul>\n<li>Created a mockup design.</li>\n<li>Coded HTML, CSS, and JS based on mockup design.</li>\n<li>Designed animation.</li>\n<li>Improved agent algorithm to achieve the best fitness for several cases.</li>\n<li>Created a logic game and a system for the main component.</li>\n</ul>"
        },
        {
            "id": 5,
            "imageUrl": "/media/imgs/project-5.png",
            "name": "Personal Website",
            "beginDate": "2019-07-25",
            "endDate": null,
            "link": "https://nandhika.netlify.com",
            "sourceCodeUrl": null,
            "tags": [
                "React",
                "React Hooks",
                "HTML5",
                "SCSS",
                "Firebase Database"
            ],
            "description": "<p>A sustainable website that has my own personal information such as experiences and projects. Furthermore improvement would create a lab page that contains my experiments that have been done, and article to share my thoughts to everyone.</p>"
        },
        {
            "id": 6,
            "imageUrl": "/media/imgs/project-6.png",
            "name": "DOLC 2020",
            "beginDate": "2019-12-24",
            "endDate": "2020-01-07",
            "link": "https://dolcfhui.netlify.app/",
            "sourceCodeUrl": null,
            "tags": [
                "Node",
                "Express",
                "Google Drive API",
                "Google Sheet Script",
                "React",
                "Styled Component"
            ],
            "description": "<p>The website that I developed to show my personal information such as experiences and projects. Furthermore improvement, I will create a lab page that contains my experiments that can be anything, and article to share my thoughts to everyone.</p>"
        },
        {
            "id": 7,
            "imageUrl": "/media/imgs/project-7.png",
            "name": "TBCare",
            "beginDate": "2020-01-20",
            "endDate": "2020-05-31",
            "link": null,
            "sourceCodeUrl": null,
            "tags": [
                "React",
                "React Native",
                "Django Rest",
                "CI/CD"
            ],
            "description": "<p>A social and medical application with a hope to help PTTI Depok in order to boost their daily activity in eradicating tuberculosis in Depok. The application is separated into two different platforms, mobile for doing their daily activity such as reporting or monitoring a patient at home and the other one is a web for admin to control the mobile user and also admin user. My most works are doing DevOps, creating base components, and designing UI/UX. Now still on development and waiting for real beta release in May 2020.</p>"
        }
    ]
}